<?xml version="1.0" encoding="UTF-8"?>
<svg xmlns="http://www.w3.org/2000/svg" width="23" height="18" viewBox="0 0 23 18" fill="none">
  <path d="M1.5 3C1.5 3 3 1 6.5 1C10 1 11.5 3 11.5 3V17C11.5 17 10 16 6.5 16C3 16 1.5 17 1.5 17V3Z" stroke="white" stroke-width="2" stroke-linecap="round" stroke-linejoin="round"></path>
  <path d="M11.5 3C11.5 3 13 1 16.5 1C20 1 21.5 3 21.5 3V17C21.5 17 20 16 16.5 16C13 16 11.5 17 11.5 17V3Z" stroke="white" stroke-width="2" stroke-linecap="round" stroke-linejoin="round"></path>
</svg>
