<?xml version="1.0" encoding="UTF-8"?>
<svg xmlns="http://www.w3.org/2000/svg" width="25" height="24" viewBox="0 0 25 24" fill="none">
  <path d="M3.5 14V22" stroke="white" stroke-width="2.5" stroke-linecap="round" stroke-linejoin="round"></path>
  <path d="M9.5 12V22" stroke="white" stroke-width="2.5" stroke-linecap="round" stroke-linejoin="round"></path>
  <path d="M15.5 8V22" stroke="white" stroke-width="2.5" stroke-linecap="round" stroke-linejoin="round"></path>
  <path d="M21.5 2V22" stroke="white" stroke-width="2.5" stroke-linecap="round" stroke-linejoin="round"></path>
</svg>
