<?xml version="1.0" encoding="UTF-8"?>
<svg xmlns="http://www.w3.org/2000/svg" width="18" height="19" viewBox="0 0 18 19" fill="none">
  <path d="M12.7519 1.85113L15.3115 2.13553C15.9977 2.21177 16.5269 2.75599 16.4548 3.44262C16.2747 5.15913 15.4264 8.54371 11.7882 12.1819C8.15002 15.8201 4.76498 16.6689 3.04815 16.8494C2.3614 16.9215 1.817 16.3923 1.74074 15.706L1.45638 13.1467C1.39137 12.5617 1.68016 11.9939 2.19127 11.7019L4.0247 10.6546C4.60265 10.3244 5.33006 10.4219 5.80071 10.8925L6.27107 11.3629C6.62006 11.7119 7.123 11.8595 7.56904 11.6482C8.09754 11.3979 8.86138 10.9336 9.7001 10.0949C10.5388 9.25613 11.0031 8.49229 11.2535 7.96379C11.4648 7.51775 11.3171 7.01481 10.9681 6.66582L10.4977 6.19546C10.0271 5.72481 9.92964 4.9974 10.2598 4.41946L11.3072 2.58602C11.5992 2.07491 12.1669 1.78613 12.7519 1.85113Z" stroke="#0B2251" stroke-width="1.47614" stroke-linecap="round" stroke-linejoin="round"></path>
</svg>
