[
    {
        "sectionId": "19",
        "typeId": "20",
        "authorId": "1",
        "postDate": "2021-12-05T20:21:00-06:00",
        "expiryDate": null,
        "newParentId": null,
        "deletedWithEntryType": false,
        "id": 23283,
        "tempId": null,
        "draftId": null,
        "revisionId": null,
        "isProvisionalDraft": false,
        "uid": "ebc4a88d-4471-451c-af02-564219bf3b49",
        "siteSettingsId": 23283,
        "fieldLayoutId": 99,
        "contentId": 5686,
        "enabled": true,
        "archived": false,
        "siteId": 1,
        "title": "Historical Streams of Christian Spirituality",
        "slug": "historical-streams-of-christian-spirituality",
        "uri": null,
        "dateCreated": "2021-12-05T20:08:01-06:00",
        "dateUpdated": "2021-12-05T20:21:37-06:00",
        "dateLastMerged": null,
        "dateDeleted": null,
        "trashed": false,
        "isNewForSite": false,
        "canonicalId": 23283,
        "ref": "class/historical-streams-of-christian-spirituality",
        "status": "live",
        "structureId": null,
        "url": null,
        "description": "<p>A study of the major spiritual traditions in Christian history with special attention on integrating their concerns, foundations, and methods for contemporary disciple-making. Students will be introduced to major figures in the history of Christian spirituality and will apply their concepts to issues in spiritual formation today.</p>\n\n",
        "instructor": [],
        "prerequisite": [],
        "creditHours": 3
    },
    {
        "sectionId": "19",
        "typeId": "20",
        "authorId": "1",
        "postDate": "2021-12-05T20:21:00-06:00",
        "expiryDate": null,
        "newParentId": null,
        "deletedWithEntryType": false,
        "id": 23319,
        "tempId": null,
        "draftId": null,
        "revisionId": null,
        "isProvisionalDraft": false,
        "uid": "d268ff0f-6850-4571-8b17-c6a61485bf35",
        "siteSettingsId": 23319,
        "fieldLayoutId": 99,
        "contentId": 5722,
        "enabled": true,
        "archived": false,
        "siteId": 1,
        "title": "Capstone Project",
        "slug": "capstone-project",
        "uri": null,
        "dateCreated": "2021-12-05T20:19:52-06:00",
        "dateUpdated": "2021-12-05T20:21:38-06:00",
        "dateLastMerged": null,
        "dateDeleted": null,
        "trashed": false,
        "isNewForSite": false,
        "canonicalId": 23319,
        "ref": "class/capstone-project",
        "status": "live",
        "structureId": null,
        "url": null,
        "description": "<p>A guided study where students propose, develop, and write an integrative project on a specified\narea of practical ministry. Students will learn to integrate theology and ministry while interacting\nwith qualitative and quantitative research. </p>\n<p><em>Prerequisite: students must have completed 60% of\ndegree sought.\n</em></p>",
        "instructor": [],
        "prerequisite": [],
        "creditHours": 3
    },
    {
        "sectionId": "19",
        "typeId": "20",
        "authorId": "1",
        "postDate": "2021-12-05T20:21:00-06:00",
        "expiryDate": null,
        "newParentId": null,
        "deletedWithEntryType": false,
        "id": 23248,
        "tempId": null,
        "draftId": null,
        "revisionId": null,
        "isProvisionalDraft": false,
        "uid": "6d761e37-3da5-48ae-b07f-e0c5cca62705",
        "siteSettingsId": 23248,
        "fieldLayoutId": 99,
        "contentId": 5651,
        "enabled": true,
        "archived": false,
        "siteId": 1,
        "title": "Christian Doctrine and Theology",
        "slug": "christian-doctrine-and-theology",
        "uri": null,
        "dateCreated": "2021-12-05T19:52:45-06:00",
        "dateUpdated": "2021-12-05T20:21:37-06:00",
        "dateLastMerged": null,
        "dateDeleted": null,
        "trashed": false,
        "isNewForSite": false,
        "canonicalId": 23248,
        "ref": "class/christian-doctrine-and-theology",
        "status": "live",
        "structureId": null,
        "url": null,
        "description": "<p>A survey of Christian Doctrine and Theology based on historical, theological, and philosophical\ninquiry with special emphasis on the first six centuries of the church. Students will learn to\nnavigate theological categories and controversies with special emphasis on the articulation of\ncore Christian doctrine and scriptural contexts.\n</p>",
        "instructor": [],
        "prerequisite": [],
        "creditHours": 3
    },
    {
        "sectionId": "19",
        "typeId": "20",
        "authorId": "1",
        "postDate": "2021-12-05T20:21:00-06:00",
        "expiryDate": null,
        "newParentId": null,
        "deletedWithEntryType": false,
        "id": 23250,
        "tempId": null,
        "draftId": null,
        "revisionId": null,
        "isProvisionalDraft": false,
        "uid": "7c2e566e-6679-4b99-a045-e2632f88a73e",
        "siteSettingsId": 23250,
        "fieldLayoutId": 99,
        "contentId": 5653,
        "enabled": true,
        "archived": false,
        "siteId": 1,
        "title": "Worldview and Cultural Discernment",
        "slug": "worldview-and-cultural-discernment",
        "uri": null,
        "dateCreated": "2021-12-05T19:53:01-06:00",
        "dateUpdated": "2021-12-05T20:21:37-06:00",
        "dateLastMerged": null,
        "dateDeleted": null,
        "trashed": false,
        "isNewForSite": false,
        "canonicalId": 23250,
        "ref": "class/worldview-and-cultural-discernment",
        "status": "live",
        "structureId": null,
        "url": null,
        "description": "<p>This course outlines and analyzes the content of the many worldview systems operative in our\nworld today from a Christian worldview rooted in Scripture. Attention is paid to the development\nof these worldviews over time as well as their many present applications. Students will learn how\nto understand and appreciate these worldviews, and how to evaluate and respond from a\nChristian worldview perspective.\n</p>",
        "instructor": [],
        "prerequisite": [],
        "creditHours": 3
    },
    {
        "sectionId": "19",
        "typeId": "20",
        "authorId": "1",
        "postDate": "2021-12-05T20:21:00-06:00",
        "expiryDate": null,
        "newParentId": null,
        "deletedWithEntryType": false,
        "id": 23317,
        "tempId": null,
        "draftId": null,
        "revisionId": null,
        "isProvisionalDraft": false,
        "uid": "db1c1c42-fa3b-4adf-a8bb-3ad83786e52e",
        "siteSettingsId": 23317,
        "fieldLayoutId": 99,
        "contentId": 5720,
        "enabled": true,
        "archived": false,
        "siteId": 1,
        "title": "Extension: Thesis",
        "slug": "extension-thesis",
        "uri": null,
        "dateCreated": "2021-12-05T20:19:02-06:00",
        "dateUpdated": "2021-12-05T20:21:38-06:00",
        "dateLastMerged": null,
        "dateDeleted": null,
        "trashed": false,
        "isNewForSite": false,
        "canonicalId": 23317,
        "ref": "class/extension-thesis",
        "status": "live",
        "structureId": null,
        "url": null,
        "description": "<p>An independent study where students complete and defend a central thesis in the area of Biblical\nStudies. Students will utilize learned skills in research and writing on a scholarly level to\ncomplete their thesis.</p>\n<p> <em>Prerequisite: BT 7990 Thesis (3 hr.).\n</em></p>",
        "instructor": [],
        "prerequisite": [],
        "creditHours": 3
    },
    {
        "sectionId": "19",
        "typeId": "20",
        "authorId": "1",
        "postDate": "2021-12-05T20:21:00-06:00",
        "expiryDate": null,
        "newParentId": null,
        "deletedWithEntryType": false,
        "id": 23315,
        "tempId": null,
        "draftId": null,
        "revisionId": null,
        "isProvisionalDraft": false,
        "uid": "14f04b3d-6294-48d0-ae93-d8e6fb19acb9",
        "siteSettingsId": 23315,
        "fieldLayoutId": 99,
        "contentId": 5718,
        "enabled": true,
        "archived": false,
        "siteId": 1,
        "title": "Thesis",
        "slug": "thesis",
        "uri": null,
        "dateCreated": "2021-12-05T20:18:08-06:00",
        "dateUpdated": "2021-12-05T20:21:38-06:00",
        "dateLastMerged": null,
        "dateDeleted": null,
        "trashed": false,
        "isNewForSite": false,
        "canonicalId": 23315,
        "ref": "class/thesis",
        "status": "live",
        "structureId": null,
        "url": null,
        "description": "<p>A guided study where students propose, write, and defend a central thesis in the area of Biblical\nStudies. Students will learn to research and write on a scholarly level, interacting with scholarly\nconversations through summarization, critique, and contribution.\n</p>\n<p><em>Prerequisite: students must\nhave completed 60% of degree sought.\n</em></p>",
        "instructor": [],
        "prerequisite": [],
        "creditHours": 3
    },
    {
        "sectionId": "19",
        "typeId": "20",
        "authorId": "1",
        "postDate": "2021-12-05T20:21:00-06:00",
        "expiryDate": null,
        "newParentId": null,
        "deletedWithEntryType": false,
        "id": 23256,
        "tempId": null,
        "draftId": null,
        "revisionId": null,
        "isProvisionalDraft": false,
        "uid": "37da4a8f-2b37-441d-a9c7-cd6f64c9416b",
        "siteSettingsId": 23256,
        "fieldLayoutId": 99,
        "contentId": 5659,
        "enabled": true,
        "archived": false,
        "siteId": 1,
        "title": "Self-Awareness and the Christian Leader",
        "slug": "self-awareness-and-the-christian-leader",
        "uri": null,
        "dateCreated": "2021-12-05T19:54:16-06:00",
        "dateUpdated": "2021-12-05T20:21:37-06:00",
        "dateLastMerged": null,
        "dateDeleted": null,
        "trashed": false,
        "isNewForSite": false,
        "canonicalId": 23256,
        "ref": "class/self-awareness-and-the-christian-leader",
        "status": "live",
        "structureId": null,
        "url": null,
        "description": "<p>An exploration of the nature of Christian leadership development, which highlights an integration of spiritual leadership, inner life formation, and identity, as found in Scripture. The student will learn how God shapes a leader over a lifetime for His unique purposes and how to partner with this process through various aspects of self-awareness.</p>\n",
        "instructor": [],
        "prerequisite": [],
        "creditHours": 3
    },
    {
        "sectionId": "19",
        "typeId": "20",
        "authorId": "1",
        "postDate": "2021-12-05T20:21:00-06:00",
        "expiryDate": null,
        "newParentId": null,
        "deletedWithEntryType": false,
        "id": 23258,
        "tempId": null,
        "draftId": null,
        "revisionId": null,
        "isProvisionalDraft": false,
        "uid": "de455b9b-3f5d-477c-908a-494bd44e0065",
        "siteSettingsId": 23258,
        "fieldLayoutId": 99,
        "contentId": 5661,
        "enabled": true,
        "archived": false,
        "siteId": 1,
        "title": "Greek 1",
        "slug": "greek-1",
        "uri": null,
        "dateCreated": "2021-12-05T19:54:37-06:00",
        "dateUpdated": "2021-12-05T20:21:37-06:00",
        "dateLastMerged": null,
        "dateDeleted": null,
        "trashed": false,
        "isNewForSite": false,
        "canonicalId": 23258,
        "ref": "class/greek-1",
        "status": "live",
        "structureId": null,
        "url": null,
        "description": "<p>An introductory examination of New Testament Greek with emphasis on vocabulary, grammar\nbasics, and language tools. Students will learn basic translation principles and implications of\nvarious linguistic nuances in the biblical text.\n</p>",
        "instructor": [],
        "prerequisite": [],
        "creditHours": 3
    },
    {
        "sectionId": "19",
        "typeId": "20",
        "authorId": "1",
        "postDate": "2021-12-05T20:21:00-06:00",
        "expiryDate": null,
        "newParentId": null,
        "deletedWithEntryType": false,
        "id": 23260,
        "tempId": null,
        "draftId": null,
        "revisionId": null,
        "isProvisionalDraft": false,
        "uid": "ac2c0c3f-a62d-47a0-9e3d-60a1a58caa78",
        "siteSettingsId": 23260,
        "fieldLayoutId": 99,
        "contentId": 5663,
        "enabled": true,
        "archived": false,
        "siteId": 1,
        "title": "Greek 2",
        "slug": "greek-2",
        "uri": null,
        "dateCreated": "2021-12-05T19:55:11-06:00",
        "dateUpdated": "2021-12-05T20:21:37-06:00",
        "dateLastMerged": null,
        "dateDeleted": null,
        "trashed": false,
        "isNewForSite": false,
        "canonicalId": 23260,
        "ref": "class/greek-2",
        "status": "live",
        "structureId": null,
        "url": null,
        "description": "<p>An introductory examination of New Testament Greek with emphasis on expanded vocabulary,\ngrammar basics, and language tools. Students will expand their knowledge on basic translation\nprinciples and implications of various linguistic nuances in the biblical text.\n</p>",
        "instructor": [],
        "prerequisite": [],
        "creditHours": 3
    },
    {
        "sectionId": "19",
        "typeId": "20",
        "authorId": "1",
        "postDate": "2021-12-05T20:21:00-06:00",
        "expiryDate": null,
        "newParentId": null,
        "deletedWithEntryType": false,
        "id": 23262,
        "tempId": null,
        "draftId": null,
        "revisionId": null,
        "isProvisionalDraft": false,
        "uid": "953bd1f9-7722-4b78-bfcb-335d738081c1",
        "siteSettingsId": 23262,
        "fieldLayoutId": 99,
        "contentId": 5665,
        "enabled": true,
        "archived": false,
        "siteId": 1,
        "title": "Hebrew 1",
        "slug": "hebrew-1",
        "uri": null,
        "dateCreated": "2021-12-05T19:55:32-06:00",
        "dateUpdated": "2021-12-05T20:21:37-06:00",
        "dateLastMerged": null,
        "dateDeleted": null,
        "trashed": false,
        "isNewForSite": false,
        "canonicalId": 23262,
        "ref": "class/hebrew-1",
        "status": "live",
        "structureId": null,
        "url": null,
        "description": "<p>An introductory examination of Biblical Hebrew with emphasis on vocabulary, grammar basics,\nand language tools. Students will learn basic translation principles and implications of various\nlinguistic nuances in the biblical text.\n</p>",
        "instructor": [],
        "prerequisite": [],
        "creditHours": 3
    },
    {
        "sectionId": "19",
        "typeId": "20",
        "authorId": "1",
        "postDate": "2021-12-05T20:21:00-06:00",
        "expiryDate": null,
        "newParentId": null,
        "deletedWithEntryType": false,
        "id": 23264,
        "tempId": null,
        "draftId": null,
        "revisionId": null,
        "isProvisionalDraft": false,
        "uid": "3636c698-b52a-4873-9769-b75be5824102",
        "siteSettingsId": 23264,
        "fieldLayoutId": 99,
        "contentId": 5667,
        "enabled": true,
        "archived": false,
        "siteId": 1,
        "title": "The Gospel of Matthew",
        "slug": "the-gospel-of-matthew",
        "uri": null,
        "dateCreated": "2021-12-05T19:55:55-06:00",
        "dateUpdated": "2021-12-05T20:21:37-06:00",
        "dateLastMerged": null,
        "dateDeleted": null,
        "trashed": false,
        "isNewForSite": false,
        "canonicalId": 23264,
        "ref": "class/the-gospel-of-matthew",
        "status": "live",
        "structureId": null,
        "url": null,
        "description": "<p>An exegetical study of the Gospel of Matthew based on grammatical, socio-cultural, literary, and\ntheological insights from both the Greek and English texts with special emphasis on regal themes\nin the narrative. Students will learn to engage the socio-political contours of Matthew from a\nfirst-century perspective with special attention given to Jewish intersections in the text.\n</p>",
        "instructor": [],
        "prerequisite": [
            "23244"
        ],
        "creditHours": 3
    },
    {
        "sectionId": "19",
        "typeId": "20",
        "authorId": "1",
        "postDate": "2021-12-05T20:21:00-06:00",
        "expiryDate": null,
        "newParentId": null,
        "deletedWithEntryType": false,
        "id": 23266,
        "tempId": null,
        "draftId": null,
        "revisionId": null,
        "isProvisionalDraft": false,
        "uid": "4f94289a-170b-4e6d-b962-d20c4bb2b15f",
        "siteSettingsId": 23266,
        "fieldLayoutId": 99,
        "contentId": 5669,
        "enabled": true,
        "archived": false,
        "siteId": 1,
        "title": "First and Second Thessalonians",
        "slug": "first-and-second-thessalonians",
        "uri": null,
        "dateCreated": "2021-12-05T19:56:30-06:00",
        "dateUpdated": "2021-12-05T20:21:37-06:00",
        "dateLastMerged": null,
        "dateDeleted": null,
        "trashed": false,
        "isNewForSite": false,
        "canonicalId": 23266,
        "ref": "class/first-and-second-thessalonians",
        "status": "live",
        "structureId": null,
        "url": null,
        "description": "<p>An exegetical study of first and second Thessalonians based on grammatical, socio-cultural, literary, theological, and pastoral insights from both the Greek and English texts. Students will learn the purposes and argument of both Thessalonian epistles with special emphasis on eschatological implications on Christian communities.</p>\n",
        "instructor": [],
        "prerequisite": [
            "23244"
        ],
        "creditHours": 3
    },
    {
        "sectionId": "19",
        "typeId": "20",
        "authorId": "1",
        "postDate": "2021-12-05T20:21:00-06:00",
        "expiryDate": null,
        "newParentId": null,
        "deletedWithEntryType": false,
        "id": 23268,
        "tempId": null,
        "draftId": null,
        "revisionId": null,
        "isProvisionalDraft": false,
        "uid": "d0ff153d-034c-4ee6-85cd-a436b2664391",
        "siteSettingsId": 23268,
        "fieldLayoutId": 99,
        "contentId": 5671,
        "enabled": true,
        "archived": false,
        "siteId": 1,
        "title": "Romans",
        "slug": "romans",
        "uri": null,
        "dateCreated": "2021-12-05T19:57:00-06:00",
        "dateUpdated": "2021-12-05T20:21:37-06:00",
        "dateLastMerged": null,
        "dateDeleted": null,
        "trashed": false,
        "isNewForSite": false,
        "canonicalId": 23268,
        "ref": "class/romans",
        "status": "live",
        "structureId": null,
        "url": null,
        "description": "<p>An exegetical study of Paul’s letter to the Romans based on grammatical, socio-cultural, literary, theological, and pastoral insights from both the Greek and English texts with special emphasis on the nature of the gospel of salvation in Christ and its impact on the shape of Christian communities in the first-century and today. Students will learn the purposes and argument of Romans as well as the details of key texts and their theological and pastoral implications.</p>\n",
        "instructor": [],
        "prerequisite": [
            "23244"
        ],
        "creditHours": 3
    },
    {
        "sectionId": "19",
        "typeId": "20",
        "authorId": "1",
        "postDate": "2021-12-05T20:21:00-06:00",
        "expiryDate": null,
        "newParentId": null,
        "deletedWithEntryType": false,
        "id": 23270,
        "tempId": null,
        "draftId": null,
        "revisionId": null,
        "isProvisionalDraft": false,
        "uid": "00c7129a-7bcd-452e-aaa9-174d5e0edb06",
        "siteSettingsId": 23270,
        "fieldLayoutId": 99,
        "contentId": 5673,
        "enabled": true,
        "archived": false,
        "siteId": 1,
        "title": "The Book of Revelation",
        "slug": "the-book-of-revelation",
        "uri": null,
        "dateCreated": "2021-12-05T20:00:46-06:00",
        "dateUpdated": "2021-12-05T20:21:37-06:00",
        "dateLastMerged": null,
        "dateDeleted": null,
        "trashed": false,
        "isNewForSite": false,
        "canonicalId": 23270,
        "ref": "class/the-book-of-revelation",
        "status": "live",
        "structureId": null,
        "url": null,
        "description": "<p>An exegetical examination of the Apocalypse of John based on grammatical, socio-cultural, imperial-critical, and theological insights from both the Greek and English texts. Students will learn to navigate apocalyptic literature from a first-century perspective with special attention given to appropriate modern-day application.</p>\n\n",
        "instructor": [],
        "prerequisite": [
            "23244"
        ],
        "creditHours": 3
    },
    {
        "sectionId": "19",
        "typeId": "20",
        "authorId": "1",
        "postDate": "2021-12-05T20:21:00-06:00",
        "expiryDate": null,
        "newParentId": null,
        "deletedWithEntryType": false,
        "id": 23273,
        "tempId": null,
        "draftId": null,
        "revisionId": null,
        "isProvisionalDraft": false,
        "uid": "5357f4d3-51e7-4d96-b05a-941b0ce6571d",
        "siteSettingsId": 23273,
        "fieldLayoutId": 99,
        "contentId": 5676,
        "enabled": true,
        "archived": false,
        "siteId": 1,
        "title": "Jeremiah",
        "slug": "jeremiah",
        "uri": null,
        "dateCreated": "2021-12-05T20:01:47-06:00",
        "dateUpdated": "2021-12-05T20:21:37-06:00",
        "dateLastMerged": null,
        "dateDeleted": null,
        "trashed": false,
        "isNewForSite": false,
        "canonicalId": 23273,
        "ref": "class/jeremiah",
        "status": "live",
        "structureId": null,
        "url": null,
        "description": "<p>An exegetical examination of the book of Jeremiah based on grammatical, socio-cultural,\nliterary, pastoral, and theological insights from both the Hebrew and English texts. Students will\nlearn to navigate this tragic period of Hebrew history with special emphasis on Messianic texts\nand God’s call to repentance amidst suffering.\n</p>",
        "instructor": [],
        "prerequisite": [
            "23244"
        ],
        "creditHours": 3
    },
    {
        "sectionId": "19",
        "typeId": "20",
        "authorId": "1",
        "postDate": "2021-12-05T20:21:00-06:00",
        "expiryDate": null,
        "newParentId": null,
        "deletedWithEntryType": false,
        "id": 23275,
        "tempId": null,
        "draftId": null,
        "revisionId": null,
        "isProvisionalDraft": false,
        "uid": "d602c40a-f65f-4f9f-8be7-7a8ebe41bdfd",
        "siteSettingsId": 23275,
        "fieldLayoutId": 99,
        "contentId": 5678,
        "enabled": true,
        "archived": false,
        "siteId": 1,
        "title": "Daniel",
        "slug": "daniel",
        "uri": null,
        "dateCreated": "2021-12-05T20:05:57-06:00",
        "dateUpdated": "2021-12-05T20:21:37-06:00",
        "dateLastMerged": null,
        "dateDeleted": null,
        "trashed": false,
        "isNewForSite": false,
        "canonicalId": 23275,
        "ref": "class/daniel",
        "status": "live",
        "structureId": null,
        "url": null,
        "description": "<p>An exegetical examination of the book of Daniel based on grammatical, socio-cultural, literary,\npastoral, and theological insights from the Hebrew, Aramaic, and English texts. Students will\nlearn to engage historical background and the prophetic-apocalyptic genre with special emphasis\non Messianic prophecies and God’s kingdom.</p>",
        "instructor": [],
        "prerequisite": [
            "23244"
        ],
        "creditHours": 3
    },
    {
        "sectionId": "19",
        "typeId": "20",
        "authorId": "1",
        "postDate": "2021-12-05T20:21:00-06:00",
        "expiryDate": null,
        "newParentId": null,
        "deletedWithEntryType": false,
        "id": 23277,
        "tempId": null,
        "draftId": null,
        "revisionId": null,
        "isProvisionalDraft": false,
        "uid": "ce3f5b21-d12c-45f6-9083-e5510f3c2604",
        "siteSettingsId": 23277,
        "fieldLayoutId": 99,
        "contentId": 5680,
        "enabled": true,
        "archived": false,
        "siteId": 1,
        "title": "Christian Hermeneutics of the Old Testament",
        "slug": "christian-hermeneutics-of-the-old-testament",
        "uri": null,
        "dateCreated": "2021-12-05T20:06:31-06:00",
        "dateUpdated": "2021-12-05T20:21:37-06:00",
        "dateLastMerged": null,
        "dateDeleted": null,
        "trashed": false,
        "isNewForSite": false,
        "canonicalId": 23277,
        "ref": "class/christian-hermeneutics-of-the-old-testament",
        "status": "live",
        "structureId": null,
        "url": null,
        "description": "<p>A comparative analysis of the historical-grammatical approach to biblical interpretation and the\nhermeneutical practices of the early church from the apostle Paul to Origen of Alexandria to the\nCappadocian fathers. Students will learn the differences and similarities, strengths and\nweaknesses, advantages and disadvantages of modern interpretative approaches in light of early\nhermeneutical approaches.\n</p>",
        "instructor": [],
        "prerequisite": [
            "23244"
        ],
        "creditHours": 3
    },
    {
        "sectionId": "19",
        "typeId": "20",
        "authorId": "1",
        "postDate": "2021-12-05T20:21:00-06:00",
        "expiryDate": null,
        "newParentId": null,
        "deletedWithEntryType": false,
        "id": 23279,
        "tempId": null,
        "draftId": null,
        "revisionId": null,
        "isProvisionalDraft": false,
        "uid": "bfb31b48-0ea4-429f-8be7-d39f36411916",
        "siteSettingsId": 23279,
        "fieldLayoutId": 99,
        "contentId": 5682,
        "enabled": true,
        "archived": false,
        "siteId": 1,
        "title": "Imperial-Critical Readings of the Biblical Text",
        "slug": "imperial-critical-readings-of-the-biblical-text",
        "uri": null,
        "dateCreated": "2021-12-05T20:07:03-06:00",
        "dateUpdated": "2021-12-05T20:21:37-06:00",
        "dateLastMerged": null,
        "dateDeleted": null,
        "trashed": false,
        "isNewForSite": false,
        "canonicalId": 23279,
        "ref": "class/imperial-critical-readings-of-the-biblical-text",
        "status": "live",
        "structureId": null,
        "url": null,
        "description": "<p>A critical examination of the biblical text from an imperial-critical approach that explores the\nrelationships and interactions between an empire and its subjects utilizing archeology,\nanthropology, sociology, and the historical-grammatical method. Students will learn to\nappreciate the socio-political dynamics in the biblical text and how the insights from this\napproach apply to the church today.\n</p>",
        "instructor": [],
        "prerequisite": [
            "23244"
        ],
        "creditHours": 3
    },
    {
        "sectionId": "19",
        "typeId": "20",
        "authorId": "1",
        "postDate": "2021-12-05T20:21:00-06:00",
        "expiryDate": null,
        "newParentId": null,
        "deletedWithEntryType": false,
        "id": 23281,
        "tempId": null,
        "draftId": null,
        "revisionId": null,
        "isProvisionalDraft": false,
        "uid": "2c24505b-3485-4bef-93c4-202e607e2c37",
        "siteSettingsId": 23281,
        "fieldLayoutId": 99,
        "contentId": 5684,
        "enabled": true,
        "archived": false,
        "siteId": 1,
        "title": "Awareness and Identity",
        "slug": "awareness-and-identity",
        "uri": null,
        "dateCreated": "2021-12-05T20:07:38-06:00",
        "dateUpdated": "2021-12-05T20:21:37-06:00",
        "dateLastMerged": null,
        "dateDeleted": null,
        "trashed": false,
        "isNewForSite": false,
        "canonicalId": 23281,
        "ref": "class/awareness-and-identity",
        "status": "live",
        "structureId": null,
        "url": null,
        "description": "<p>A critical examination of self-awareness and its relation to identity using Scripture, ancient and\nmodern texts, assessment tools, and personality profiles. Students will learn spiritual practices\nthat focus on deepening self-awareness, unearthing their identity in Christ, and how this impacts\nChristian community.\n</p>",
        "instructor": [],
        "prerequisite": [],
        "creditHours": 3
    },
    {
        "sectionId": "19",
        "typeId": "20",
        "authorId": "1",
        "postDate": "2021-12-05T20:21:00-06:00",
        "expiryDate": null,
        "newParentId": null,
        "deletedWithEntryType": false,
        "id": 23321,
        "tempId": null,
        "draftId": null,
        "revisionId": null,
        "isProvisionalDraft": false,
        "uid": "35a7c93b-4c5a-46ff-a844-de91c66be2b1",
        "siteSettingsId": 23321,
        "fieldLayoutId": 99,
        "contentId": 5724,
        "enabled": true,
        "archived": false,
        "siteId": 1,
        "title": "Extension: Capstone Project",
        "slug": "extension-capstone-project",
        "uri": null,
        "dateCreated": "2021-12-05T20:20:12-06:00",
        "dateUpdated": "2021-12-05T20:21:38-06:00",
        "dateLastMerged": null,
        "dateDeleted": null,
        "trashed": false,
        "isNewForSite": false,
        "canonicalId": 23321,
        "ref": "class/extension-capstone-project",
        "status": "live",
        "structureId": null,
        "url": null,
        "description": "<p>An independent study where students complete an integrative project on a specified area of\npractical ministry. Students will utilize learned skills that integrate theology and ministry to\ncomplete their capstone project. </p>\n<p><em>Prerequisite: BT 7993 Capstone Project (3 hr.).\n</em></p>",
        "instructor": [],
        "prerequisite": [],
        "creditHours": 3
    },
    {
        "sectionId": "19",
        "typeId": "20",
        "authorId": "1",
        "postDate": "2021-12-05T20:21:00-06:00",
        "expiryDate": null,
        "newParentId": null,
        "deletedWithEntryType": false,
        "id": 23285,
        "tempId": null,
        "draftId": null,
        "revisionId": null,
        "isProvisionalDraft": false,
        "uid": "7d1e80eb-1f1f-462f-9609-0cb1a9a20168",
        "siteSettingsId": 23285,
        "fieldLayoutId": 99,
        "contentId": 5688,
        "enabled": true,
        "archived": false,
        "siteId": 1,
        "title": "Spiritual Formation for Christian Community",
        "slug": "spiritual-formation-for-christian-community",
        "uri": null,
        "dateCreated": "2021-12-05T20:08:34-06:00",
        "dateUpdated": "2021-12-05T20:21:37-06:00",
        "dateLastMerged": null,
        "dateDeleted": null,
        "trashed": false,
        "isNewForSite": false,
        "canonicalId": 23285,
        "ref": "class/spiritual-formation-for-christian-community",
        "status": "live",
        "structureId": null,
        "url": null,
        "description": "<p>A synthesis of various issues and traditions of Christian spiritual formation into the liturgical\npractices of a local community. Students will utilize biblical foundations, historical practices,\nand insights in group dynamics to imagine a fellowship that leads to personal spiritual maturity.\n</p>",
        "instructor": [],
        "prerequisite": [],
        "creditHours": 3
    },
    {
        "sectionId": "19",
        "typeId": "20",
        "authorId": "1",
        "postDate": "2021-12-05T20:21:00-06:00",
        "expiryDate": null,
        "newParentId": null,
        "deletedWithEntryType": false,
        "id": 23287,
        "tempId": null,
        "draftId": null,
        "revisionId": null,
        "isProvisionalDraft": false,
        "uid": "46eb255a-a299-42a7-9722-c6a9666a8a79",
        "siteSettingsId": 23287,
        "fieldLayoutId": 99,
        "contentId": 5690,
        "enabled": true,
        "archived": false,
        "siteId": 1,
        "title": "Spiritual Theology",
        "slug": "spiritual-theology",
        "uri": null,
        "dateCreated": "2021-12-05T20:08:56-06:00",
        "dateUpdated": "2021-12-05T20:21:37-06:00",
        "dateLastMerged": null,
        "dateDeleted": null,
        "trashed": false,
        "isNewForSite": false,
        "canonicalId": 23287,
        "ref": "class/spiritual-theology",
        "status": "live",
        "structureId": null,
        "url": null,
        "description": "<p>A critical approach to the nature and development of the spiritual journey, with special attention\nto helpful and unhelpful responses to God’s work in the life of the Christian. Students will learn\nhow to articulate, tend to, and build a framework for the work of the Spirit in their own lives and\nin the lives of those they companion.\n</p>",
        "instructor": [],
        "prerequisite": [],
        "creditHours": 3
    },
    {
        "sectionId": "19",
        "typeId": "20",
        "authorId": "1",
        "postDate": "2021-12-05T20:21:00-06:00",
        "expiryDate": null,
        "newParentId": null,
        "deletedWithEntryType": false,
        "id": 23289,
        "tempId": null,
        "draftId": null,
        "revisionId": null,
        "isProvisionalDraft": false,
        "uid": "0060c54d-41ca-4a80-8097-33115103a09f",
        "siteSettingsId": 23289,
        "fieldLayoutId": 99,
        "contentId": 5692,
        "enabled": true,
        "archived": false,
        "siteId": 1,
        "title": "The Power of Scripture in Spiritual Formation",
        "slug": "the-power-of-scripture-in-spiritual-formation",
        "uri": null,
        "dateCreated": "2021-12-05T20:09:59-06:00",
        "dateUpdated": "2021-12-05T20:21:37-06:00",
        "dateLastMerged": null,
        "dateDeleted": null,
        "trashed": false,
        "isNewForSite": false,
        "canonicalId": 23289,
        "ref": "class/the-power-of-scripture-in-spiritual-formation",
        "status": "live",
        "structureId": null,
        "url": null,
        "description": "<p>A study of how the content and various genres of Scripture define and shape models for spiritual\nformation. Students will craft a bibliological foundation for discipleship, as they integrate the\nmessage and form of Scripture with historical and contemporary concerns in Christian\nspirituality.\n</p>",
        "instructor": [],
        "prerequisite": [],
        "creditHours": 3
    },
    {
        "sectionId": "19",
        "typeId": "20",
        "authorId": "1",
        "postDate": "2021-12-05T20:21:00-06:00",
        "expiryDate": null,
        "newParentId": null,
        "deletedWithEntryType": false,
        "id": 23291,
        "tempId": null,
        "draftId": null,
        "revisionId": null,
        "isProvisionalDraft": false,
        "uid": "9e45ce80-edcd-4888-88c2-18f77982744d",
        "siteSettingsId": 23291,
        "fieldLayoutId": 99,
        "contentId": 5694,
        "enabled": true,
        "archived": false,
        "siteId": 1,
        "title": "Narratives in Divine Authority and Identity Formation",
        "slug": "narratives-in-divine-authority-and-identity-formation",
        "uri": null,
        "dateCreated": "2021-12-05T20:10:28-06:00",
        "dateUpdated": "2021-12-05T20:21:37-06:00",
        "dateLastMerged": null,
        "dateDeleted": null,
        "trashed": false,
        "isNewForSite": false,
        "canonicalId": 23291,
        "ref": "class/narratives-in-divine-authority-and-identity-formation",
        "status": "live",
        "structureId": null,
        "url": null,
        "description": "<p>An examination of the effect of models of divine authority on the formation of identity: the meaning, relationships, and purpose of the human person. Students will use Scripture and ancient/modern literature to examine the sociological, psychological, and devotional ramifications of their understanding of the sovereignty of God.</p>\n",
        "instructor": [],
        "prerequisite": [],
        "creditHours": 3
    },
    {
        "sectionId": "19",
        "typeId": "20",
        "authorId": "1",
        "postDate": "2021-12-05T20:21:00-06:00",
        "expiryDate": null,
        "newParentId": null,
        "deletedWithEntryType": false,
        "id": 23293,
        "tempId": null,
        "draftId": null,
        "revisionId": null,
        "isProvisionalDraft": false,
        "uid": "00c4f815-7e18-4e65-9614-062c5ff92c5e",
        "siteSettingsId": 23293,
        "fieldLayoutId": 99,
        "contentId": 5696,
        "enabled": true,
        "archived": false,
        "siteId": 1,
        "title": "Soul Care and Discipleship",
        "slug": "soul-care-and-discipleship",
        "uri": null,
        "dateCreated": "2021-12-05T20:11:25-06:00",
        "dateUpdated": "2021-12-05T20:21:37-06:00",
        "dateLastMerged": null,
        "dateDeleted": null,
        "trashed": false,
        "isNewForSite": false,
        "canonicalId": 23293,
        "ref": "class/soul-care-and-discipleship",
        "status": "live",
        "structureId": null,
        "url": null,
        "description": "<p>This course will explore soul care practices and habits, as well as gain understanding of a Rule of\nLife. Students will experiment with different spiritual practices and habits throughout the\nsemester and create a working Rule of Life.\n</p>",
        "instructor": [],
        "prerequisite": [],
        "creditHours": 3
    },
    {
        "sectionId": "19",
        "typeId": "20",
        "authorId": "1",
        "postDate": "2021-12-05T20:21:00-06:00",
        "expiryDate": null,
        "newParentId": null,
        "deletedWithEntryType": false,
        "id": 23295,
        "tempId": null,
        "draftId": null,
        "revisionId": null,
        "isProvisionalDraft": false,
        "uid": "87228161-3fde-4477-bd6f-b6c34a1b27b0",
        "siteSettingsId": 23295,
        "fieldLayoutId": 99,
        "contentId": 5698,
        "enabled": true,
        "archived": false,
        "siteId": 1,
        "title": "Ancient and Modern Mystics",
        "slug": "ancient-and-modern-mystics",
        "uri": null,
        "dateCreated": "2021-12-05T20:11:44-06:00",
        "dateUpdated": "2021-12-05T20:21:37-06:00",
        "dateLastMerged": null,
        "dateDeleted": null,
        "trashed": false,
        "isNewForSite": false,
        "canonicalId": 23295,
        "ref": "class/ancient-and-modern-mystics",
        "status": "live",
        "structureId": null,
        "url": null,
        "description": "<p>A critical exploration of the lives of ancient and modern mystics found throughout Scripture and Christian history to examine their intent, practices, and lifestyle. Students will learn ways to integrate key aspects of the lives of mystics into their own and expand their understanding of the influencers of the church over the centuries and today.</p>\n",
        "instructor": [],
        "prerequisite": [],
        "creditHours": 3
    },
    {
        "sectionId": "19",
        "typeId": "20",
        "authorId": "1",
        "postDate": "2021-12-05T20:21:00-06:00",
        "expiryDate": null,
        "newParentId": null,
        "deletedWithEntryType": false,
        "id": 23297,
        "tempId": null,
        "draftId": null,
        "revisionId": null,
        "isProvisionalDraft": false,
        "uid": "91f785c1-f9c8-4207-a892-99165f06c2c9",
        "siteSettingsId": 23297,
        "fieldLayoutId": 99,
        "contentId": 5700,
        "enabled": true,
        "archived": false,
        "siteId": 1,
        "title": "Pastoral Counseling",
        "slug": "pastoral-counseling",
        "uri": null,
        "dateCreated": "2021-12-05T20:12:11-06:00",
        "dateUpdated": "2021-12-05T20:21:38-06:00",
        "dateLastMerged": null,
        "dateDeleted": null,
        "trashed": false,
        "isNewForSite": false,
        "canonicalId": 23297,
        "ref": "class/pastoral-counseling",
        "status": "live",
        "structureId": null,
        "url": null,
        "description": "<p>An introduction to pastoral counseling as a practice of ministry and a theological bridge that connects sound theology with the best practices of psychology and counseling. Students will learn specific interventions for the common issues pastors face including (but not limited to): addictions, marital problems, divorce, sexuality issues, trauma and death. Students will learn the solution-focused counseling model with an emphasis on ethical practice, confidentiality, and the skill of referral, with special attention given to the pastor’s own need for self-care in pastoral ministry.</p>\n\n\n",
        "instructor": [],
        "prerequisite": [],
        "creditHours": 3
    },
    {
        "sectionId": "19",
        "typeId": "20",
        "authorId": "1",
        "postDate": "2021-12-05T20:21:00-06:00",
        "expiryDate": null,
        "newParentId": null,
        "deletedWithEntryType": false,
        "id": 23299,
        "tempId": null,
        "draftId": null,
        "revisionId": null,
        "isProvisionalDraft": false,
        "uid": "b36cd4d3-cd81-4204-afa7-88be79fb1741",
        "siteSettingsId": 23299,
        "fieldLayoutId": 99,
        "contentId": 5702,
        "enabled": true,
        "archived": false,
        "siteId": 1,
        "title": "Ethics in Leadership",
        "slug": "ethics-in-leadership",
        "uri": null,
        "dateCreated": "2021-12-05T20:12:48-06:00",
        "dateUpdated": "2021-12-05T20:21:38-06:00",
        "dateLastMerged": null,
        "dateDeleted": null,
        "trashed": false,
        "isNewForSite": false,
        "canonicalId": 23299,
        "ref": "class/ethics-in-leadership",
        "status": "live",
        "structureId": null,
        "url": null,
        "description": "<p>A critical analysis of the foundation, purpose, and methodology of various ethical systems,\napproaches to ethical decision-making, and applications to leadership contexts. Students consider\nleadership from the perspective of the personal character of leaders—their ability to make\ndecisions and take actions considered good and right.\n</p>",
        "instructor": [],
        "prerequisite": [],
        "creditHours": 3
    },
    {
        "sectionId": "19",
        "typeId": "20",
        "authorId": "1",
        "postDate": "2021-12-05T20:21:00-06:00",
        "expiryDate": null,
        "newParentId": null,
        "deletedWithEntryType": false,
        "id": 23301,
        "tempId": null,
        "draftId": null,
        "revisionId": null,
        "isProvisionalDraft": false,
        "uid": "27b5eb29-866f-4245-9814-465d94e78d67",
        "siteSettingsId": 23301,
        "fieldLayoutId": 99,
        "contentId": 5704,
        "enabled": true,
        "archived": false,
        "siteId": 1,
        "title": "Dynamics of Change and Conflict",
        "slug": "dynamics-of-change-and-conflict",
        "uri": null,
        "dateCreated": "2021-12-05T20:13:06-06:00",
        "dateUpdated": "2021-12-05T20:21:38-06:00",
        "dateLastMerged": null,
        "dateDeleted": null,
        "trashed": false,
        "isNewForSite": false,
        "canonicalId": 23301,
        "ref": "class/dynamics-of-change-and-conflict",
        "status": "live",
        "structureId": null,
        "url": null,
        "description": "<p>An examination of the dual impact of the dynamics of change in organizations/social<br />\nsystems and the inevitable conflict that arises in any setting. Students will learn practical, biblical\napproaches to navigating and communicating through both change and conflict, both on an\ninterpersonal and organizational level.\n</p>",
        "instructor": [],
        "prerequisite": [],
        "creditHours": 3
    },
    {
        "sectionId": "19",
        "typeId": "20",
        "authorId": "1",
        "postDate": "2021-12-05T20:21:00-06:00",
        "expiryDate": null,
        "newParentId": null,
        "deletedWithEntryType": false,
        "id": 23303,
        "tempId": null,
        "draftId": null,
        "revisionId": null,
        "isProvisionalDraft": false,
        "uid": "13f02bfc-9432-42bd-93f9-4b07989a1f2e",
        "siteSettingsId": 23303,
        "fieldLayoutId": 99,
        "contentId": 5706,
        "enabled": true,
        "archived": false,
        "siteId": 1,
        "title": "Multi-Cultural Dynamics in Leadership Settings",
        "slug": "multi-cultural-dynamics-in-leadership-settings",
        "uri": null,
        "dateCreated": "2021-12-05T20:13:28-06:00",
        "dateUpdated": "2021-12-05T20:21:38-06:00",
        "dateLastMerged": null,
        "dateDeleted": null,
        "trashed": false,
        "isNewForSite": false,
        "canonicalId": 23303,
        "ref": "class/multi-cultural-dynamics-in-leadership-settings",
        "status": "live",
        "structureId": null,
        "url": null,
        "description": "<p>An examination of the dynamics in multi-cultural and multi-ethnic teams seeking to execute strategies in a diverse setting. Students will be able to identify the strengths and opportunities that diversity brings to organizations and teams while developing strategies for problem solving and communication.</p>",
        "instructor": [],
        "prerequisite": [],
        "creditHours": 3
    },
    {
        "sectionId": "19",
        "typeId": "20",
        "authorId": "1",
        "postDate": "2021-12-05T20:21:00-06:00",
        "expiryDate": null,
        "newParentId": null,
        "deletedWithEntryType": false,
        "id": 23305,
        "tempId": null,
        "draftId": null,
        "revisionId": null,
        "isProvisionalDraft": false,
        "uid": "632dbf09-e76f-44d9-8d75-1ecc0c16e1c6",
        "siteSettingsId": 23305,
        "fieldLayoutId": 99,
        "contentId": 5708,
        "enabled": true,
        "archived": false,
        "siteId": 1,
        "title": "Communication Dynamics",
        "slug": "communication-dynamics",
        "uri": null,
        "dateCreated": "2021-12-05T20:13:46-06:00",
        "dateUpdated": "2021-12-05T20:21:38-06:00",
        "dateLastMerged": null,
        "dateDeleted": null,
        "trashed": false,
        "isNewForSite": false,
        "canonicalId": 23305,
        "ref": "class/communication-dynamics",
        "status": "live",
        "structureId": null,
        "url": null,
        "description": "<p>An analysis of the foundational concepts of intercultural communication with an emphasis on\nhow social psychology, cultural anthropology, and communication theory informs one’s ability\nto send and receive messages in diverse environments. Students will examine the major value\nsystems that inform communicative behavior to gain understanding of how perception,\nexpression, and non-verbal communication relates to comprehension.\n</p>",
        "instructor": [],
        "prerequisite": [],
        "creditHours": 3
    },
    {
        "sectionId": "19",
        "typeId": "20",
        "authorId": "1",
        "postDate": "2021-12-05T20:21:00-06:00",
        "expiryDate": null,
        "newParentId": null,
        "deletedWithEntryType": false,
        "id": 23307,
        "tempId": null,
        "draftId": null,
        "revisionId": null,
        "isProvisionalDraft": false,
        "uid": "59107f20-bf5c-4f62-ad8a-1948e0f87705",
        "siteSettingsId": 23307,
        "fieldLayoutId": 99,
        "contentId": 5710,
        "enabled": true,
        "archived": false,
        "siteId": 1,
        "title": "Strategic Planning and Project Management",
        "slug": "strategic-planning-and-project-management",
        "uri": null,
        "dateCreated": "2021-12-05T20:14:05-06:00",
        "dateUpdated": "2021-12-05T20:21:38-06:00",
        "dateLastMerged": null,
        "dateDeleted": null,
        "trashed": false,
        "isNewForSite": false,
        "canonicalId": 23307,
        "ref": "class/strategic-planning-and-project-management",
        "status": "live",
        "structureId": null,
        "url": null,
        "description": "<p>An exploration of the strategic planning process with an emphasis on project management. The\nstudent will learn the steps to develop strategic plans, engage in analytical assessment, and\nemploy project management principles.\n</p>",
        "instructor": [],
        "prerequisite": [],
        "creditHours": 3
    },
    {
        "sectionId": "19",
        "typeId": "20",
        "authorId": "1",
        "postDate": "2021-12-05T20:21:00-06:00",
        "expiryDate": null,
        "newParentId": null,
        "deletedWithEntryType": false,
        "id": 23309,
        "tempId": null,
        "draftId": null,
        "revisionId": null,
        "isProvisionalDraft": false,
        "uid": "0fa8cddb-8deb-43e3-ba1d-6050678f4b8f",
        "siteSettingsId": 23309,
        "fieldLayoutId": 99,
        "contentId": 5712,
        "enabled": true,
        "archived": false,
        "siteId": 1,
        "title": "Leadership in a Global Context",
        "slug": "leadership-in-a-global-context",
        "uri": null,
        "dateCreated": "2021-12-05T20:14:25-06:00",
        "dateUpdated": "2021-12-05T20:21:38-06:00",
        "dateLastMerged": null,
        "dateDeleted": null,
        "trashed": false,
        "isNewForSite": false,
        "canonicalId": 23309,
        "ref": "class/leadership-in-a-global-context",
        "status": "live",
        "structureId": null,
        "url": null,
        "description": "<p>A comparative analysis of leadership styles as seen in the largest cultural groupings worldwide\nwith special attention given to how these approaches effect both organizational and church\nleadership structures. Students will learn the advantages and disadvantages of these leadership\nmethods in light of their cultural moorings and contexts.\n</p>",
        "instructor": [],
        "prerequisite": [],
        "creditHours": 3
    },
    {
        "sectionId": "19",
        "typeId": "20",
        "authorId": "1",
        "postDate": "2021-12-05T20:21:00-06:00",
        "expiryDate": null,
        "newParentId": null,
        "deletedWithEntryType": false,
        "id": 23311,
        "tempId": null,
        "draftId": null,
        "revisionId": null,
        "isProvisionalDraft": false,
        "uid": "01e1f9d2-3f62-4145-86d0-3cab25760483",
        "siteSettingsId": 23311,
        "fieldLayoutId": 99,
        "contentId": 5714,
        "enabled": true,
        "archived": false,
        "siteId": 1,
        "title": "Cultural Intelligence and Agility",
        "slug": "cultural-intelligence-and-agility",
        "uri": null,
        "dateCreated": "2021-12-05T20:15:58-06:00",
        "dateUpdated": "2021-12-05T20:21:38-06:00",
        "dateLastMerged": null,
        "dateDeleted": null,
        "trashed": false,
        "isNewForSite": false,
        "canonicalId": 23311,
        "ref": "class/cultural-intelligence-and-agility",
        "status": "live",
        "structureId": null,
        "url": null,
        "description": "<p>An introduction to various multicultural frameworks, with special attention given to a variety of\ndifferent cultural codes, values, worldviews, and the journey through the different stages of\ncultural intelligence. Students will learn to engage, discern, and do ministry in a variety of\ncultural contexts by utilizing various tools to identify cultural agility in themselves and others.\n</p>",
        "instructor": [],
        "prerequisite": [],
        "creditHours": 3
    },
    {
        "sectionId": "19",
        "typeId": "20",
        "authorId": "1",
        "postDate": "2021-12-05T20:21:00-06:00",
        "expiryDate": null,
        "newParentId": null,
        "deletedWithEntryType": false,
        "id": 23313,
        "tempId": null,
        "draftId": null,
        "revisionId": null,
        "isProvisionalDraft": false,
        "uid": "29d67496-6bdc-42c5-89ac-b302a2dd4328",
        "siteSettingsId": 23313,
        "fieldLayoutId": 99,
        "contentId": 5716,
        "enabled": true,
        "archived": false,
        "siteId": 1,
        "title": "The Church in the Public Sphere",
        "slug": "the-church-in-the-public-sphere",
        "uri": null,
        "dateCreated": "2021-12-05T20:16:15-06:00",
        "dateUpdated": "2021-12-05T20:21:38-06:00",
        "dateLastMerged": null,
        "dateDeleted": null,
        "trashed": false,
        "isNewForSite": false,
        "canonicalId": 23313,
        "ref": "class/the-church-in-the-public-sphere",
        "status": "live",
        "structureId": null,
        "url": null,
        "description": "<p>A critical engagement with a variety of contemporary social issues including (but not limited to) racial issues, gender issues, classism, and sexuality from a Christian worldview. Students will learn what the Bible says about such issues, the history of the social issues, and how the church has responded historically.</p>\n",
        "instructor": [],
        "prerequisite": [],
        "creditHours": 3
    },
    {
        "sectionId": "19",
        "typeId": "20",
        "authorId": "1",
        "postDate": "2021-12-05T19:54:00-06:00",
        "expiryDate": null,
        "newParentId": null,
        "deletedWithEntryType": false,
        "id": 23254,
        "tempId": null,
        "draftId": null,
        "revisionId": null,
        "isProvisionalDraft": false,
        "uid": "ca7ffd6e-eccc-4a1b-a193-c8dfb8100b87",
        "siteSettingsId": 23254,
        "fieldLayoutId": 99,
        "contentId": 5657,
        "enabled": true,
        "archived": false,
        "siteId": 1,
        "title": "Spiritual Formation and Discipleship",
        "slug": "spiritual-formation-and-discipleship",
        "uri": null,
        "dateCreated": "2021-12-05T19:53:42-06:00",
        "dateUpdated": "2021-12-05T19:54:02-06:00",
        "dateLastMerged": null,
        "dateDeleted": null,
        "trashed": false,
        "isNewForSite": false,
        "canonicalId": 23254,
        "ref": "class/spiritual-formation-and-discipleship",
        "status": "live",
        "structureId": null,
        "url": null,
        "description": "<p>An examination of the biblical truths that guide how spiritual practices become helpful to the\nspiritual journey of the individual and groups. Students will learn why spiritual practices are\nimportant, how they can be approached healthily and unhealthily, and how to apply certain\nspiritual practices for specific seasons of the spiritual journey.\n</p>",
        "instructor": [],
        "prerequisite": [],
        "creditHours": 3
    },
    {
        "sectionId": "19",
        "typeId": "20",
        "authorId": "1",
        "postDate": "2021-12-05T19:53:00-06:00",
        "expiryDate": null,
        "newParentId": null,
        "deletedWithEntryType": false,
        "id": 23252,
        "tempId": null,
        "draftId": null,
        "revisionId": null,
        "isProvisionalDraft": false,
        "uid": "38b0722f-86ac-4ee7-9aa7-7b711d13edc1",
        "siteSettingsId": 23252,
        "fieldLayoutId": 99,
        "contentId": 5655,
        "enabled": true,
        "archived": false,
        "siteId": 1,
        "title": "Biblical Theology of Mission",
        "slug": "biblical-theology-of-mission",
        "uri": null,
        "dateCreated": "2021-12-05T19:53:23-06:00",
        "dateUpdated": "2021-12-05T19:53:36-06:00",
        "dateLastMerged": null,
        "dateDeleted": null,
        "trashed": false,
        "isNewForSite": false,
        "canonicalId": 23252,
        "ref": "class/biblical-theology-of-mission",
        "status": "live",
        "structureId": null,
        "url": null,
        "description": "<p>A critical examination of the principles of missiology as seen in Scripture specifically engaging\nthe major historical and theological perspectives on mission. Students will learn to distinguish\nmissiological approaches with a particular emphasis given to the significance of Abrahamic\ncovenant in Missio Dei theology.\n</p>",
        "instructor": [],
        "prerequisite": [],
        "creditHours": 3
    },
    {
        "sectionId": "19",
        "typeId": "20",
        "authorId": "1",
        "postDate": "2021-12-05T19:52:00-06:00",
        "expiryDate": null,
        "newParentId": null,
        "deletedWithEntryType": false,
        "id": 23244,
        "tempId": null,
        "draftId": null,
        "revisionId": null,
        "isProvisionalDraft": false,
        "uid": "3918c935-a909-4156-9616-4eec1181e5b9",
        "siteSettingsId": 23244,
        "fieldLayoutId": 99,
        "contentId": 5647,
        "enabled": true,
        "archived": false,
        "siteId": 1,
        "title": "Contextualized Hermeneutics",
        "slug": "contextualized-hermeneutics",
        "uri": null,
        "dateCreated": "2021-12-05T19:51:45-06:00",
        "dateUpdated": "2021-12-05T19:52:38-06:00",
        "dateLastMerged": null,
        "dateDeleted": null,
        "trashed": false,
        "isNewForSite": false,
        "canonicalId": 23244,
        "ref": "class/contextualized-hermeneutics",
        "status": "live",
        "structureId": null,
        "url": null,
        "description": "<p>A critical examination of various principles of interpretation through the book of Acts intentionally engaging in missiological, pastoral, and historical-grammatical contextual analysis. Students will learn both general and specific hermeneutical principles necessary to acquire and apply scriptural insights to various contexts.</p>",
        "instructor": [],
        "prerequisite": [],
        "creditHours": 3
    },
    {
        "sectionId": "19",
        "typeId": "20",
        "authorId": "1",
        "postDate": "2021-12-03T18:24:00-06:00",
        "expiryDate": null,
        "newParentId": null,
        "deletedWithEntryType": false,
        "id": 22972,
        "tempId": null,
        "draftId": null,
        "revisionId": null,
        "isProvisionalDraft": false,
        "uid": "9a8fa2fc-b9f3-4e58-993c-b2c8c2bd0841",
        "siteSettingsId": 22972,
        "fieldLayoutId": 99,
        "contentId": 5566,
        "enabled": true,
        "archived": false,
        "siteId": 1,
        "title": "Test",
        "slug": "test",
        "uri": null,
        "dateCreated": "2021-12-03T18:24:16-06:00",
        "dateUpdated": "2021-12-03T18:24:29-06:00",
        "dateLastMerged": null,
        "dateDeleted": null,
        "trashed": false,
        "isNewForSite": false,
        "canonicalId": 22972,
        "ref": "class/test",
        "status": "live",
        "structureId": null,
        "url": null,
        "description": "<p>Test</p>",
        "instructor": [],
        "prerequisite": [],
        "creditHours": 3
    }
]